{
"estado": "Miranda",
"ciudad": "Caracas",
"municipio": "Sucre",
"contacto-covid19": "Si",
"mayor-65": "Si",
"fiebre": "Si",
"tos": "Si",
"dificultad-respirar": "Si",
"viajes-internacionales" : "Si",
"inmunidad": "Si", 
"med-inmune": "Si",
"historia-pulmon": "Si",
"mialgia": "Si",
"artralgia": "Si",
"rinorrea": "Si",
"escalofrios": "Si",
"parroquias": "",
"user": {
  "source": "telegram",
  "user_id": 77917259
  },
"riesgo_medico": 1,
"riesgo_covid": 1,
"riesgo_total": 1
}
